[
    "tandis que",
    "que",
    "quand",
    "au fur et à mesure que",
    "après que",
    "à mesure que",
    "lorsque",
    "comme",
    "chaque fois que",
    "depuis que",
    "avant que",
    "alors que",
    "d'ici à ce que",
    "au moment où",
    "le plus tôt que",
    "sitôt que",
    "pendant que",
    "jusqu'à ce que",
    "durant que",
    "aussitôt que",
    "maintenant que",
    "dès que"
]